/Users/cristiantimbi/workspace-java/demoappdocker/src/main/java/ec/edu/ups/p58/pw/demoappdocker/Jsf23Activator.java
/Users/cristiantimbi/workspace-java/demoappdocker/src/main/java/ec/edu/ups/p58/pw/demoappdocker/HolaMundoService.java
/Users/cristiantimbi/workspace-java/demoappdocker/src/main/java/ec/edu/ups/p58/pw/demoappdocker/ApplictaionPathActivator.java
